41392 0
41648 1
41904 2
42160 3
42416 4
42672 5
42928 6
43184 7
43440 8
43696 9
43952 10
44208 11
44464 12
44720 13
44976 14
45232 15
45488 16
45744 17
46000 18
46256 19
46512 20
46768 21
47024 22
47280 23
47536 24
47792 25
48048 26
48304 27
48560 28
48816 29
49072 30
49328 31
49584 32
49840 33
50096 34
50352 35
50608 36
50864 37
51120 38
51376 39
51632 40
51888 41
52144 42
52400 43
52656 44
52912 45
53168 46
53424 47
53680 48
53936 49
54192 50
54448 51
54704 52
54960 53
55216 54
55472 55
55728 56
55984 57
56240 58
56496 59
56752 60
57008 61
57264 62
57520 63
57776 64
58032 65
58288 66
58544 67
58800 68
59056 69
59312 70
59568 71
59824 72
60080 73
60336 74
60592 75
60848 76
61104 77
61360 78
61616 79
61872 80
62128 81
62384 82
62640 83
62896 84
63152 85
63408 86
63664 87
63920 88
64176 89
64432 90
64688 91
64944 92
65200 93
41393 94
41649 95
41905 96
42161 97
42417 98
42673 99
42929 100
43185 101
43441 102
43697 103
43953 104
44209 105
44465 106
44721 107
44977 108
45233 109
45489 110
45745 111
46001 112
46257 113
46513 114
46769 115
47025 116
47281 117
47537 118
47793 119
48049 120
48305 121
48561 122
48817 123
49073 124
49329 125
49585 126
49841 127
50097 128
50353 129
50609 130
50865 131
51121 132
51377 133
51633 134
51889 135
52145 136
52401 137
52657 138
52913 139
53169 140
53425 141
53681 142
53937 143
54193 144
54449 145
54705 146
54961 147
55217 148
55473 149
55729 150
55985 151
56241 152
56497 153
56753 154
57009 155
57265 156
57521 157
57777 158
58033 159
58289 160
58545 161
58801 162
59057 163
59313 164
59569 165
59825 166
60081 167
60337 168
60593 169
60849 170
61105 171
61361 172
61617 173
61873 174
62129 175
62385 176
62641 177
62897 178
63153 179
63409 180
63665 181
63921 182
64177 183
64433 184
64689 185
64945 186
65201 187
41394 188
41650 189
41906 190
42162 191
42418 192
42674 193
42930 194
43186 195
43442 196
43698 197
43954 198
44210 199
44466 200
44722 201
44978 202
45234 203
45490 204
45746 205
46002 206
46258 207
46514 208
46770 209
47026 210
47282 211
47538 212
47794 213
48050 214
48306 215
48562 216
48818 217
49074 218
49330 219
49586 220
49842 221
50098 222
50354 223
50610 224
50866 225
51122 226
51378 227
51634 228
51890 229
52146 230
52402 231
52658 232
52914 233
53170 234
53426 235
53682 236
53938 237
54194 238
54450 239
54706 240
54962 241
55218 242
55474 243
55730 244
55986 245
56242 246
56498 247
56754 248
57010 249
57266 250
57522 251
57778 252
58034 253
58290 254
58546 255
58802 256
59058 257
59314 258
59570 259
59826 260
60082 261
60338 262
60594 263
60850 264
61106 265
61362 266
61618 267
61874 268
62130 269
62386 270
62642 271
62898 272
63154 273
63410 274
63666 275
63922 276
64178 277
64434 278
64690 279
64946 280
65202 281
41395 282
41651 283
41907 284
42163 285
42419 286
42675 287
42931 288
43187 289
43443 290
43699 291
43955 292
44211 293
44467 294
44723 295
44979 296
45235 297
45491 298
45747 299
46003 300
46259 301
46515 302
46771 303
47027 304
47283 305
47539 306
47795 307
48051 308
48307 309
48563 310
48819 311
49075 312
49331 313
49587 314
49843 315
50099 316
50355 317
50611 318
50867 319
51123 320
51379 321
51635 322
51891 323
52147 324
52403 325
52659 326
52915 327
53171 328
53427 329
53683 330
53939 331
54195 332
54451 333
54707 334
54963 335
55219 336
55475 337
55731 338
55987 339
56243 340
56499 341
56755 342
57011 343
57267 344
57523 345
57779 346
58035 347
58291 348
58547 349
58803 350
59059 351
59315 352
59571 353
59827 354
60083 355
60339 356
60595 357
60851 358
61107 359
61363 360
61619 361
61875 362
62131 363
62387 364
62643 365
62899 366
63155 367
63411 368
63667 369
63923 370
64179 371
64435 372
64691 373
64947 374
65203 375
41396 376
41652 377
41908 378
42164 379
42420 380
42676 381
42932 382
43188 383
43444 384
43700 385
43956 386
44212 387
44468 388
44724 389
44980 390
45236 391
45492 392
45748 393
46004 394
46260 395
46516 396
46772 397
47028 398
47284 399
47540 400
47796 401
48052 402
48308 403
48564 404
48820 405
49076 406
49332 407
49588 408
49844 409
50100 410
50356 411
50612 412
50868 413
51124 414
51380 415
51636 416
51892 417
52148 418
52404 419
52660 420
52916 421
53172 422
53428 423
53684 424
53940 425
54196 426
54452 427
54708 428
54964 429
55220 430
55476 431
55732 432
55988 433
56244 434
56500 435
56756 436
57012 437
57268 438
57524 439
57780 440
58036 441
58292 442
58548 443
58804 444
59060 445
59316 446
59572 447
59828 448
60084 449
60340 450
60596 451
60852 452
61108 453
61364 454
61620 455
61876 456
62132 457
62388 458
62644 459
62900 460
63156 461
63412 462
63668 463
63924 464
64180 465
64436 466
64692 467
64948 468
65204 469
41397 470
41653 471
41909 472
42165 473
42421 474
42677 475
42933 476
43189 477
43445 478
43701 479
43957 480
44213 481
44469 482
44725 483
44981 484
45237 485
45493 486
45749 487
46005 488
46261 489
46517 490
46773 491
47029 492
47285 493
47541 494
47797 495
48053 496
48309 497
48565 498
48821 499
49077 500
49333 501
49589 502
49845 503
50101 504
50357 505
50613 506
50869 507
51125 508
51381 509
51637 510
51893 511
52149 512
52405 513
52661 514
52917 515
53173 516
53429 517
53685 518
53941 519
54197 520
54453 521
54709 522
54965 523
55221 524
55477 525
55733 526
55989 527
56245 528
56501 529
56757 530
57013 531
57269 532
57525 533
57781 534
58037 535
58293 536
58549 537
58805 538
59061 539
59317 540
59573 541
59829 542
60085 543
60341 544
60597 545
60853 546
61109 547
61365 548
61621 549
61877 550
62133 551
62389 552
62645 553
62901 554
63157 555
63413 556
63669 557
63925 558
64181 559
64437 560
64693 561
64949 562
65205 563
41398 564
41654 565
41910 566
42166 567
42422 568
42678 569
42934 570
43190 571
43446 572
43702 573
43958 574
44214 575
44470 576
44726 577
44982 578
45238 579
45494 580
45750 581
46006 582
46262 583
46518 584
46774 585
47030 586
47286 587
47542 588
47798 589
48054 590
48310 591
48566 592
48822 593
49078 594
49334 595
49590 596
49846 597
50102 598
50358 599
50614 600
50870 601
51126 602
51382 603
51638 604
51894 605
52150 606
52406 607
52662 608
52918 609
53174 610
53430 611
53686 612
53942 613
54198 614
54454 615
54710 616
54966 617
55222 618
55478 619
55734 620
55990 621
56246 622
56502 623
56758 624
57014 625
57270 626
57526 627
57782 628
58038 629
58294 630
58550 631
58806 632
59062 633
59318 634
59574 635
59830 636
60086 637
60342 638
60598 639
60854 640
61110 641
61366 642
61622 643
61878 644
62134 645
62390 646
62646 647
62902 648
63158 649
63414 650
63670 651
63926 652
64182 653
64438 654
64694 655
64950 656
65206 657
41399 658
41655 659
41911 660
42167 661
42423 662
42679 663
42935 664
43191 665
43447 666
43703 667
43959 668
44215 669
44471 670
44727 671
44983 672
45239 673
45495 674
45751 675
46007 676
46263 677
46519 678
46775 679
47031 680
47287 681
47543 682
47799 683
48055 684
48311 685
48567 686
48823 687
49079 688
49335 689
49591 690
49847 691
50103 692
50359 693
50615 694
50871 695
51127 696
51383 697
51639 698
51895 699
52151 700
52407 701
52663 702
52919 703
53175 704
53431 705
53687 706
53943 707
54199 708
54455 709
54711 710
54967 711
55223 712
55479 713
55735 714
55991 715
56247 716
56503 717
56759 718
57015 719
57271 720
57527 721
57783 722
58039 723
58295 724
58551 725
58807 726
59063 727
59319 728
59575 729
59831 730
60087 731
60343 732
60599 733
60855 734
61111 735
61367 736
61623 737
61879 738
62135 739
62391 740
62647 741
62903 742
63159 743
63415 744
63671 745
63927 746
64183 747
64439 748
64695 749
64951 750
65207 751
41400 752
41656 753
41912 754
42168 755
42424 756
42680 757
42936 758
43192 759
43448 760
43704 761
43960 762
44216 763
44472 764
44728 765
44984 766
45240 767
45496 768
45752 769
46008 770
46264 771
46520 772
46776 773
47032 774
47288 775
47544 776
47800 777
48056 778
48312 779
48568 780
48824 781
49080 782
49336 783
49592 784
49848 785
50104 786
50360 787
50616 788
50872 789
51128 790
51384 791
51640 792
51896 793
52152 794
52408 795
52664 796
52920 797
53176 798
53432 799
53688 800
53944 801
54200 802
54456 803
54712 804
54968 805
55224 806
55480 807
55736 808
55992 809
56248 810
56504 811
56760 812
57016 813
57272 814
57528 815
57784 816
58040 817
58296 818
58552 819
58808 820
59064 821
59320 822
59576 823
59832 824
60088 825
60344 826
60600 827
60856 828
61112 829
61368 830
61624 831
61880 832
62136 833
62392 834
62648 835
62904 836
63160 837
63416 838
63672 839
63928 840
64184 841
64440 842
64696 843
64952 844
65208 845
41401 846
41657 847
41913 848
42169 849
42425 850
42681 851
42937 852
43193 853
43449 854
43705 855
43961 856
44217 857
44473 858
44729 859
44985 860
45241 861
45497 862
45753 863
46009 864
46265 865
46521 866
46777 867
47033 868
47289 869
47545 870
47801 871
48057 872
48313 873
48569 874
48825 875
49081 876
49337 877
49593 878
49849 879
50105 880
50361 881
50617 882
50873 883
51129 884
51385 885
51641 886
51897 887
52153 888
52409 889
52665 890
52921 891
53177 892
53433 893
53689 894
53945 895
54201 896
54457 897
54713 898
54969 899
55225 900
55481 901
55737 902
55993 903
56249 904
56505 905
56761 906
57017 907
57273 908
57529 909
57785 910
58041 911
58297 912
58553 913
58809 914
59065 915
59321 916
59577 917
59833 918
60089 919
60345 920
60601 921
60857 922
61113 923
61369 924
61625 925
61881 926
62137 927
62393 928
62649 929
62905 930
63161 931
63417 932
63673 933
63929 934
64185 935
64441 936
64697 937
64953 938
65209 939
41402 940
41658 941
41914 942
42170 943
42426 944
42682 945
42938 946
43194 947
43450 948
43706 949
43962 950
44218 951
44474 952
44730 953
44986 954
45242 955
45498 956
45754 957
46010 958
46266 959
46522 960
46778 961
47034 962
47290 963
47546 964
47802 965
48058 966
48314 967
48570 968
48826 969
49082 970
49338 971
49594 972
49850 973
50106 974
50362 975
50618 976
50874 977
51130 978
51386 979
51642 980
51898 981
52154 982
52410 983
52666 984
52922 985
53178 986
53434 987
53690 988
53946 989
54202 990
54458 991
54714 992
54970 993
55226 994
55482 995
55738 996
55994 997
56250 998
56506 999
56762 1000
57018 1001
57274 1002
57530 1003
57786 1004
58042 1005
58298 1006
58554 1007
58810 1008
59066 1009
59322 1010
59578 1011
59834 1012
60090 1013
60346 1014
60602 1015
60858 1016
61114 1017
61370 1018
61626 1019
61882 1020
62138 1021
62394 1022
62650 1023
62906 1024
63162 1025
63418 1026
63674 1027
63930 1028
64186 1029
64442 1030
64698 1031
64954 1032
65210 1033
41403 1034
41659 1035
41915 1036
42171 1037
42427 1038
42683 1039
42939 1040
43195 1041
43451 1042
43707 1043
43963 1044
44219 1045
44475 1046
44731 1047
44987 1048
45243 1049
45499 1050
45755 1051
46011 1052
46267 1053
46523 1054
46779 1055
47035 1056
47291 1057
47547 1058
47803 1059
48059 1060
48315 1061
48571 1062
48827 1063
49083 1064
49339 1065
49595 1066
49851 1067
50107 1068
50363 1069
50619 1070
50875 1071
51131 1072
51387 1073
51643 1074
51899 1075
52155 1076
52411 1077
52667 1078
52923 1079
53179 1080
53435 1081
53691 1082
53947 1083
54203 1084
54459 1085
54715 1086
54971 1087
55227 1088
55483 1089
55739 1090
55995 1091
56251 1092
56507 1093
56763 1094
57019 1095
57275 1096
57531 1097
57787 1098
58043 1099
58299 1100
58555 1101
58811 1102
59067 1103
59323 1104
59579 1105
59835 1106
60091 1107
60347 1108
60603 1109
60859 1110
61115 1111
61371 1112
61627 1113
61883 1114
62139 1115
62395 1116
62651 1117
62907 1118
63163 1119
63419 1120
63675 1121
63931 1122
64187 1123
64443 1124
64699 1125
64955 1126
65211 1127
41404 1128
41660 1129
41916 1130
42172 1131
42428 1132
42684 1133
42940 1134
43196 1135
43452 1136
43708 1137
43964 1138
44220 1139
44476 1140
44732 1141
44988 1142
45244 1143
45500 1144
45756 1145
46012 1146
46268 1147
46524 1148
46780 1149
47036 1150
47292 1151
47548 1152
47804 1153
48060 1154
48316 1155
48572 1156
48828 1157
49084 1158
49340 1159
49596 1160
49852 1161
50108 1162
50364 1163
50620 1164
50876 1165
51132 1166
51388 1167
51644 1168
51900 1169
52156 1170
52412 1171
52668 1172
52924 1173
53180 1174
53436 1175
53692 1176
53948 1177
54204 1178
54460 1179
54716 1180
54972 1181
55228 1182
55484 1183
55740 1184
55996 1185
56252 1186
56508 1187
56764 1188
57020 1189
57276 1190
57532 1191
57788 1192
58044 1193
58300 1194
58556 1195
58812 1196
59068 1197
59324 1198
59580 1199
59836 1200
60092 1201
60348 1202
60604 1203
60860 1204
61116 1205
61372 1206
61628 1207
61884 1208
62140 1209
62396 1210
62652 1211
62908 1212
63164 1213
63420 1214
63676 1215
63932 1216
64188 1217
64444 1218
64700 1219
64956 1220
65212 1221
41405 1222
41661 1223
41917 1224
42173 1225
42429 1226
42685 1227
42941 1228
43197 1229
43453 1230
43709 1231
43965 1232
44221 1233
44477 1234
44733 1235
44989 1236
45245 1237
45501 1238
45757 1239
46013 1240
46269 1241
46525 1242
46781 1243
47037 1244
47293 1245
47549 1246
47805 1247
48061 1248
48317 1249
48573 1250
48829 1251
49085 1252
49341 1253
49597 1254
49853 1255
50109 1256
50365 1257
50621 1258
50877 1259
51133 1260
51389 1261
51645 1262
51901 1263
52157 1264
52413 1265
52669 1266
52925 1267
53181 1268
53437 1269
53693 1270
53949 1271
54205 1272
54461 1273
54717 1274
54973 1275
55229 1276
55485 1277
55741 1278
55997 1279
56253 1280
56509 1281
56765 1282
57021 1283
57277 1284
57533 1285
57789 1286
58045 1287
58301 1288
58557 1289
58813 1290
59069 1291
59325 1292
59581 1293
59837 1294
60093 1295
60349 1296
60605 1297
60861 1298
61117 1299
61373 1300
61629 1301
61885 1302
62141 1303
62397 1304
62653 1305
62909 1306
63165 1307
63421 1308
63677 1309
63933 1310
64189 1311
64445 1312
64701 1313
64957 1314
65213 1315
41406 1316
41662 1317
41918 1318
42174 1319
42430 1320
42686 1321
42942 1322
43198 1323
43454 1324
43710 1325
43966 1326
44222 1327
44478 1328
44734 1329
44990 1330
45246 1331
45502 1332
45758 1333
46014 1334
46270 1335
46526 1336
46782 1337
47038 1338
47294 1339
47550 1340
47806 1341
48062 1342
48318 1343
48574 1344
48830 1345
49086 1346
49342 1347
49598 1348
49854 1349
50110 1350
50366 1351
50622 1352
50878 1353
51134 1354
51390 1355
51646 1356
51902 1357
52158 1358
52414 1359
52670 1360
52926 1361
53182 1362
53438 1363
53694 1364
53950 1365
54206 1366
54462 1367
54718 1368
54974 1369
55230 1370
55486 1371
55742 1372
55998 1373
56254 1374
56510 1375
56766 1376
57022 1377
57278 1378
57534 1379
57790 1380
58046 1381
58302 1382
58558 1383
58814 1384
59070 1385
59326 1386
59582 1387
59838 1388
60094 1389
60350 1390
60606 1391
60862 1392
61118 1393
61374 1394
61630 1395
61886 1396
62142 1397
62398 1398
62654 1399
62910 1400
63166 1401
63422 1402
63678 1403
63934 1404
64190 1405
64446 1406
64702 1407
64958 1408
65214 1409
41407 1410
41663 1411
41919 1412
42175 1413
42431 1414
42687 1415
42943 1416
43199 1417
43455 1418
43711 1419
43967 1420
44223 1421
44479 1422
44735 1423
44991 1424
45247 1425
45503 1426
45759 1427
46015 1428
46271 1429
46527 1430
46783 1431
47039 1432
47295 1433
47551 1434
47807 1435
48063 1436
48319 1437
48575 1438
48831 1439
49087 1440
49343 1441
49599 1442
49855 1443
50111 1444
50367 1445
50623 1446
50879 1447
51135 1448
51391 1449
51647 1450
51903 1451
52159 1452
52415 1453
52671 1454
52927 1455
53183 1456
53439 1457
53695 1458
53951 1459
54207 1460
54463 1461
54719 1462
54975 1463
55231 1464
55487 1465
55743 1466
55999 1467
56255 1468
56511 1469
56767 1470
57023 1471
57279 1472
57535 1473
57791 1474
58047 1475
58303 1476
58559 1477
58815 1478
59071 1479
59327 1480
59583 1481
59839 1482
60095 1483
60351 1484
60607 1485
60863 1486
61119 1487
61375 1488
61631 1489
61887 1490
62143 1491
62399 1492
62655 1493
62911 1494
63167 1495
63423 1496
63679 1497
63935 1498
64191 1499
64447 1500
64703 1501
64959 1502
65215 1503
41408 1504
41664 1505
41920 1506
42176 1507
42432 1508
42688 1509
42944 1510
43200 1511
43456 1512
43712 1513
43968 1514
44224 1515
44480 1516
44736 1517
44992 1518
45248 1519
45504 1520
45760 1521
46016 1522
46272 1523
46528 1524
46784 1525
47040 1526
47296 1527
47552 1528
47808 1529
48064 1530
48320 1531
48576 1532
48832 1533
49088 1534
49344 1535
49600 1536
49856 1537
50112 1538
50368 1539
50624 1540
50880 1541
51136 1542
51392 1543
51648 1544
51904 1545
52160 1546
52416 1547
52672 1548
52928 1549
53184 1550
53440 1551
53696 1552
53952 1553
54208 1554
54464 1555
54720 1556
54976 1557
55232 1558
55488 1559
55744 1560
56000 1561
56256 1562
56512 1563
56768 1564
57024 1565
57280 1566
57536 1567
57792 1568
58048 1569
58304 1570
58560 1571
58816 1572
59072 1573
59328 1574
59584 1575
59840 1576
60096 1577
60352 1578
60608 1579
60864 1580
61120 1581
61376 1582
61632 1583
61888 1584
62144 1585
62400 1586
62656 1587
62912 1588
63168 1589
63424 1590
63680 1591
63936 1592
64192 1593
64448 1594
64704 1595
64960 1596
65216 1597
41409 1598
41665 1599
41921 1600
42177 1601
42433 1602
42689 1603
42945 1604
43201 1605
43457 1606
43713 1607
43969 1608
44225 1609
44481 1610
44737 1611
44993 1612
45249 1613
45505 1614
45761 1615
46017 1616
46273 1617
46529 1618
46785 1619
47041 1620
47297 1621
47553 1622
47809 1623
48065 1624
48321 1625
48577 1626
48833 1627
49089 1628
49345 1629
49601 1630
49857 1631
50113 1632
50369 1633
50625 1634
50881 1635
51137 1636
51393 1637
51649 1638
51905 1639
52161 1640
52417 1641
52673 1642
52929 1643
53185 1644
53441 1645
53697 1646
53953 1647
54209 1648
54465 1649
54721 1650
54977 1651
55233 1652
55489 1653
55745 1654
56001 1655
56257 1656
56513 1657
56769 1658
57025 1659
57281 1660
57537 1661
57793 1662
58049 1663
58305 1664
58561 1665
58817 1666
59073 1667
59329 1668
59585 1669
59841 1670
60097 1671
60353 1672
60609 1673
60865 1674
61121 1675
61377 1676
61633 1677
61889 1678
62145 1679
62401 1680
62657 1681
62913 1682
63169 1683
63425 1684
63681 1685
63937 1686
64193 1687
64449 1688
64705 1689
64961 1690
65217 1691
41410 1692
41666 1693
41922 1694
42178 1695
42434 1696
42690 1697
42946 1698
43202 1699
43458 1700
43714 1701
43970 1702
44226 1703
44482 1704
44738 1705
44994 1706
45250 1707
45506 1708
45762 1709
46018 1710
46274 1711
46530 1712
46786 1713
47042 1714
47298 1715
47554 1716
47810 1717
48066 1718
48322 1719
48578 1720
48834 1721
49090 1722
49346 1723
49602 1724
49858 1725
50114 1726
50370 1727
50626 1728
50882 1729
51138 1730
51394 1731
51650 1732
51906 1733
52162 1734
52418 1735
52674 1736
52930 1737
53186 1738
53442 1739
53698 1740
53954 1741
54210 1742
54466 1743
54722 1744
54978 1745
55234 1746
55490 1747
55746 1748
56002 1749
56258 1750
56514 1751
56770 1752
57026 1753
57282 1754
57538 1755
57794 1756
58050 1757
58306 1758
58562 1759
58818 1760
59074 1761
59330 1762
59586 1763
59842 1764
60098 1765
60354 1766
60610 1767
60866 1768
61122 1769
61378 1770
61634 1771
61890 1772
62146 1773
62402 1774
62658 1775
62914 1776
63170 1777
63426 1778
63682 1779
63938 1780
64194 1781
64450 1782
64706 1783
64962 1784
65218 1785
41411 1786
41667 1787
41923 1788
42179 1789
42435 1790
42691 1791
42947 1792
43203 1793
43459 1794
43715 1795
43971 1796
44227 1797
44483 1798
44739 1799
44995 1800
45251 1801
45507 1802
45763 1803
46019 1804
46275 1805
46531 1806
46787 1807
47043 1808
47299 1809
47555 1810
47811 1811
48067 1812
48323 1813
48579 1814
48835 1815
49091 1816
49347 1817
49603 1818
49859 1819
50115 1820
50371 1821
50627 1822
50883 1823
51139 1824
51395 1825
51651 1826
51907 1827
52163 1828
52419 1829
52675 1830
52931 1831
53187 1832
53443 1833
53699 1834
53955 1835
54211 1836
54467 1837
54723 1838
54979 1839
55235 1840
55491 1841
55747 1842
56003 1843
56259 1844
56515 1845
56771 1846
57027 1847
57283 1848
57539 1849
57795 1850
58051 1851
58307 1852
58563 1853
58819 1854
59075 1855
59331 1856
59587 1857
59843 1858
60099 1859
60355 1860
60611 1861
60867 1862
61123 1863
61379 1864
61635 1865
61891 1866
62147 1867
62403 1868
62659 1869
62915 1870
63171 1871
63427 1872
63683 1873
63939 1874
64195 1875
64451 1876
64707 1877
64963 1878
65219 1879
41412 1880
41668 1881
41924 1882
42180 1883
42436 1884
42692 1885
42948 1886
43204 1887
43460 1888
43716 1889
43972 1890
44228 1891
44484 1892
44740 1893
44996 1894
45252 1895
45508 1896
45764 1897
46020 1898
46276 1899
46532 1900
46788 1901
47044 1902
47300 1903
47556 1904
47812 1905
48068 1906
48324 1907
48580 1908
48836 1909
49092 1910
49348 1911
49604 1912
49860 1913
50116 1914
50372 1915
50628 1916
50884 1917
51140 1918
51396 1919
51652 1920
51908 1921
52164 1922
52420 1923
52676 1924
52932 1925
53188 1926
53444 1927
53700 1928
53956 1929
54212 1930
54468 1931
54724 1932
54980 1933
55236 1934
55492 1935
55748 1936
56004 1937
56260 1938
56516 1939
56772 1940
57028 1941
57284 1942
57540 1943
57796 1944
58052 1945
58308 1946
58564 1947
58820 1948
59076 1949
59332 1950
59588 1951
59844 1952
60100 1953
60356 1954
60612 1955
60868 1956
61124 1957
61380 1958
61636 1959
61892 1960
62148 1961
62404 1962
62660 1963
62916 1964
63172 1965
63428 1966
63684 1967
63940 1968
64196 1969
64452 1970
64708 1971
64964 1972
65220 1973
41413 1974
41669 1975
41925 1976
42181 1977
42437 1978
42693 1979
42949 1980
43205 1981
43461 1982
43717 1983
43973 1984
44229 1985
44485 1986
44741 1987
44997 1988
45253 1989
45509 1990
45765 1991
46021 1992
46277 1993
46533 1994
46789 1995
47045 1996
47301 1997
47557 1998
47813 1999
48069 2000
48325 2001
48581 2002
48837 2003
49093 2004
49349 2005
49605 2006
49861 2007
50117 2008
50373 2009
50629 2010
50885 2011
51141 2012
51397 2013
51653 2014
51909 2015
52165 2016
52421 2017
52677 2018
52933 2019
53189 2020
53445 2021
53701 2022
53957 2023
54213 2024
54469 2025
54725 2026
54981 2027
55237 2028
55493 2029
55749 2030
56005 2031
56261 2032
56517 2033
56773 2034
57029 2035
57285 2036
57541 2037
57797 2038
58053 2039
58309 2040
58565 2041
58821 2042
59077 2043
59333 2044
59589 2045
59845 2046
60101 2047
60357 2048
60613 2049
60869 2050
61125 2051
61381 2052
61637 2053
61893 2054
62149 2055
62405 2056
62661 2057
62917 2058
63173 2059
63429 2060
63685 2061
63941 2062
64197 2063
64453 2064
64709 2065
64965 2066
65221 2067
41414 2068
41670 2069
41926 2070
42182 2071
42438 2072
42694 2073
42950 2074
43206 2075
43462 2076
43718 2077
43974 2078
44230 2079
44486 2080
44742 2081
44998 2082
45254 2083
45510 2084
45766 2085
46022 2086
46278 2087
46534 2088
46790 2089
47046 2090
47302 2091
47558 2092
47814 2093
48070 2094
48326 2095
48582 2096
48838 2097
49094 2098
49350 2099
49606 2100
49862 2101
50118 2102
50374 2103
50630 2104
50886 2105
51142 2106
51398 2107
51654 2108
51910 2109
52166 2110
52422 2111
52678 2112
52934 2113
53190 2114
53446 2115
53702 2116
53958 2117
54214 2118
54470 2119
54726 2120
54982 2121
55238 2122
55494 2123
55750 2124
56006 2125
56262 2126
56518 2127
56774 2128
57030 2129
57286 2130
57542 2131
57798 2132
58054 2133
58310 2134
58566 2135
58822 2136
59078 2137
59334 2138
59590 2139
59846 2140
60102 2141
60358 2142
60614 2143
60870 2144
61126 2145
61382 2146
61638 2147
61894 2148
62150 2149
62406 2150
62662 2151
62918 2152
63174 2153
63430 2154
63686 2155
63942 2156
64198 2157
64454 2158
64710 2159
64966 2160
65222 2161
41415 2162
41671 2163
41927 2164
42183 2165
42439 2166
42695 2167
42951 2168
43207 2169
43463 2170
43719 2171
43975 2172
44231 2173
44487 2174
44743 2175
44999 2176
45255 2177
45511 2178
45767 2179
46023 2180
46279 2181
46535 2182
46791 2183
47047 2184
47303 2185
47559 2186
47815 2187
48071 2188
48327 2189
48583 2190
48839 2191
49095 2192
49351 2193
49607 2194
49863 2195
50119 2196
50375 2197
50631 2198
50887 2199
51143 2200
51399 2201
51655 2202
51911 2203
52167 2204
52423 2205
52679 2206
52935 2207
53191 2208
53447 2209
53703 2210
53959 2211
54215 2212
54471 2213
54727 2214
54983 2215
55239 2216
55495 2217
55751 2218
56007 2219
56263 2220
56519 2221
56775 2222
57031 2223
57287 2224
57543 2225
57799 2226
58055 2227
58311 2228
58567 2229
58823 2230
59079 2231
59335 2232
59591 2233
59847 2234
60103 2235
60359 2236
60615 2237
60871 2238
61127 2239
61383 2240
61639 2241
61895 2242
62151 2243
62407 2244
62663 2245
62919 2246
63175 2247
63431 2248
63687 2249
63943 2250
64199 2251
64455 2252
64711 2253
64967 2254
65223 2255
41416 2256
41672 2257
41928 2258
42184 2259
42440 2260
42696 2261
42952 2262
43208 2263
43464 2264
43720 2265
43976 2266
44232 2267
44488 2268
44744 2269
45000 2270
45256 2271
45512 2272
45768 2273
46024 2274
46280 2275
46536 2276
46792 2277
47048 2278
47304 2279
47560 2280
47816 2281
48072 2282
48328 2283
48584 2284
48840 2285
49096 2286
49352 2287
49608 2288
49864 2289
50120 2290
50376 2291
50632 2292
50888 2293
51144 2294
51400 2295
51656 2296
51912 2297
52168 2298
52424 2299
52680 2300
52936 2301
53192 2302
53448 2303
53704 2304
53960 2305
54216 2306
54472 2307
54728 2308
54984 2309
55240 2310
55496 2311
55752 2312
56008 2313
56264 2314
56520 2315
56776 2316
57032 2317
57288 2318
57544 2319
57800 2320
58056 2321
58312 2322
58568 2323
58824 2324
59080 2325
59336 2326
59592 2327
59848 2328
60104 2329
60360 2330
60616 2331
60872 2332
61128 2333
61384 2334
61640 2335
61896 2336
62152 2337
62408 2338
62664 2339
62920 2340
63176 2341
63432 2342
63688 2343
63944 2344
64200 2345
64456 2346
64712 2347
64968 2348
65224 2349
41417 2350
41673 2351
41929 2352
42185 2353
42441 2354
42697 2355
42953 2356
43209 2357
43465 2358
43721 2359
43977 2360
44233 2361
44489 2362
44745 2363
45001 2364
45257 2365
45513 2366
45769 2367
46025 2368
46281 2369
46537 2370
46793 2371
47049 2372
47305 2373
47561 2374
47817 2375
48073 2376
48329 2377
48585 2378
48841 2379
49097 2380
49353 2381
49609 2382
49865 2383
50121 2384
50377 2385
50633 2386
50889 2387
51145 2388
51401 2389
51657 2390
51913 2391
52169 2392
52425 2393
52681 2394
52937 2395
53193 2396
53449 2397
53705 2398
53961 2399
54217 2400
54473 2401
54729 2402
54985 2403
55241 2404
55497 2405
55753 2406
56009 2407
56265 2408
56521 2409
56777 2410
57033 2411
57289 2412
57545 2413
57801 2414
58057 2415
58313 2416
58569 2417
58825 2418
59081 2419
59337 2420
59593 2421
59849 2422
60105 2423
60361 2424
60617 2425
60873 2426
61129 2427
61385 2428
61641 2429
61897 2430
62153 2431
62409 2432
62665 2433
62921 2434
63177 2435
63433 2436
63689 2437
63945 2438
64201 2439
64457 2440
64713 2441
64969 2442
65225 2443
41418 2444
41674 2445
41930 2446
42186 2447
42442 2448
42698 2449
42954 2450
43210 2451
43466 2452
43722 2453
43978 2454
44234 2455
44490 2456
44746 2457
45002 2458
45258 2459
45514 2460
45770 2461
46026 2462
46282 2463
46538 2464
46794 2465
47050 2466
47306 2467
47562 2468
47818 2469
48074 2470
48330 2471
48586 2472
48842 2473
49098 2474
49354 2475
49610 2476
49866 2477
50122 2478
50378 2479
50634 2480
50890 2481
51146 2482
51402 2483
51658 2484
51914 2485
52170 2486
52426 2487
52682 2488
52938 2489
53194 2490
53450 2491
53706 2492
53962 2493
54218 2494
54474 2495
54730 2496
54986 2497
55242 2498
55498 2499
55754 2500
56010 2501
56266 2502
56522 2503
56778 2504
57034 2505
57290 2506
57546 2507
57802 2508
58058 2509
58314 2510
58570 2511
58826 2512
59082 2513
59338 2514
59594 2515
59850 2516
60106 2517
60362 2518
60618 2519
60874 2520
61130 2521
61386 2522
61642 2523
61898 2524
62154 2525
62410 2526
62666 2527
62922 2528
63178 2529
63434 2530
63690 2531
63946 2532
64202 2533
64458 2534
64714 2535
64970 2536
65226 2537
41419 2538
41675 2539
41931 2540
42187 2541
42443 2542
42699 2543
42955 2544
43211 2545
43467 2546
43723 2547
43979 2548
44235 2549
44491 2550
44747 2551
45003 2552
45259 2553
45515 2554
45771 2555
46027 2556
46283 2557
46539 2558
46795 2559
47051 2560
47307 2561
47563 2562
47819 2563
48075 2564
48331 2565
48587 2566
48843 2567
49099 2568
49355 2569
49611 2570
49867 2571
50123 2572
50379 2573
50635 2574
50891 2575
51147 2576
51403 2577
51659 2578
51915 2579
52171 2580
52427 2581
52683 2582
52939 2583
53195 2584
53451 2585
53707 2586
53963 2587
54219 2588
54475 2589
54731 2590
54987 2591
55243 2592
55499 2593
55755 2594
56011 2595
56267 2596
56523 2597
56779 2598
57035 2599
57291 2600
57547 2601
57803 2602
58059 2603
58315 2604
58571 2605
58827 2606
59083 2607
59339 2608
59595 2609
59851 2610
60107 2611
60363 2612
60619 2613
60875 2614
61131 2615
61387 2616
61643 2617
61899 2618
62155 2619
62411 2620
62667 2621
62923 2622
63179 2623
63435 2624
63691 2625
63947 2626
64203 2627
64459 2628
64715 2629
64971 2630
65227 2631
41420 2632
41676 2633
41932 2634
42188 2635
42444 2636
42700 2637
42956 2638
43212 2639
43468 2640
43724 2641
43980 2642
44236 2643
44492 2644
44748 2645
45004 2646
45260 2647
45516 2648
45772 2649
46028 2650
46284 2651
46540 2652
46796 2653
47052 2654
47308 2655
47564 2656
47820 2657
48076 2658
48332 2659
48588 2660
48844 2661
49100 2662
49356 2663
49612 2664
49868 2665
50124 2666
50380 2667
50636 2668
50892 2669
51148 2670
51404 2671
51660 2672
51916 2673
52172 2674
52428 2675
52684 2676
52940 2677
53196 2678
53452 2679
53708 2680
53964 2681
54220 2682
54476 2683
54732 2684
54988 2685
55244 2686
55500 2687
55756 2688
56012 2689
56268 2690
56524 2691
56780 2692
57036 2693
57292 2694
57548 2695
57804 2696
58060 2697
58316 2698
58572 2699
58828 2700
59084 2701
59340 2702
59596 2703
59852 2704
60108 2705
60364 2706
60620 2707
60876 2708
61132 2709
61388 2710
61644 2711
61900 2712
62156 2713
62412 2714
62668 2715
62924 2716
63180 2717
63436 2718
63692 2719
63948 2720
64204 2721
64460 2722
64716 2723
64972 2724
65228 2725
41421 2726
41677 2727
41933 2728
42189 2729
42445 2730
42701 2731
42957 2732
43213 2733
43469 2734
43725 2735
43981 2736
44237 2737
44493 2738
44749 2739
45005 2740
45261 2741
45517 2742
45773 2743
46029 2744
46285 2745
46541 2746
46797 2747
47053 2748
47309 2749
47565 2750
47821 2751
48077 2752
48333 2753
48589 2754
48845 2755
49101 2756
49357 2757
49613 2758
49869 2759
50125 2760
50381 2761
50637 2762
50893 2763
51149 2764
51405 2765
51661 2766
51917 2767
52173 2768
52429 2769
52685 2770
52941 2771
53197 2772
53453 2773
53709 2774
53965 2775
54221 2776
54477 2777
54733 2778
54989 2779
55245 2780
55501 2781
55757 2782
56013 2783
56269 2784
56525 2785
56781 2786
57037 2787
57293 2788
57805 2789
58061 2790
58317 2791
58573 2792
58829 2793
59085 2794
59341 2795
59597 2796
59853 2797
60109 2798
60365 2799
60621 2800
60877 2801
61133 2802
61389 2803
61645 2804
61901 2805
62157 2806
62413 2807
62669 2808
62925 2809
63181 2810
63437 2811
63693 2812
63949 2813
64205 2814
64461 2815
64717 2816
64973 2817
65229 2818
41422 2819
41678 2820
41934 2821
42190 2822
42446 2823
42702 2824
42958 2825
43214 2826
43470 2827
43726 2828
43982 2829
44238 2830
44494 2831
44750 2832
45006 2833
45262 2834
45518 2835
45774 2836
46030 2837
46286 2838
46542 2839
46798 2840
47054 2841
47310 2842
47566 2843
47822 2844
48078 2845
48334 2846
48590 2847
48846 2848
49102 2849
49358 2850
49614 2851
49870 2852
50126 2853
50382 2854
50638 2855
50894 2856
51150 2857
51406 2858
51662 2859
51918 2860
52174 2861
52430 2862
52686 2863
52942 2864
53198 2865
53454 2866
53710 2867
53966 2868
54222 2869
54478 2870
54734 2871
54990 2872
55246 2873
55502 2874
55758 2875
56014 2876
56270 2877
56526 2878
56782 2879
57038 2880
57294 2881
57550 2882
57806 2883
58062 2884
58318 2885
58574 2886
58830 2887
59086 2888
59342 2889
59598 2890
59854 2891
60110 2892
60366 2893
60622 2894
60878 2895
61134 2896
61390 2897
61646 2898
61902 2899
62158 2900
62414 2901
62670 2902
62926 2903
63182 2904
63438 2905
63694 2906
63950 2907
64206 2908
64462 2909
64718 2910
64974 2911
65230 2912
41423 2913
41679 2914
41935 2915
42191 2916
42447 2917
42703 2918
42959 2919
43215 2920
43471 2921
43727 2922
43983 2923
44239 2924
44495 2925
44751 2926
45007 2927
45263 2928
45519 2929
45775 2930
46031 2931
46287 2932
46543 2933
46799 2934
47055 2935
47311 2936
47567 2937
47823 2938
48079 2939
48335 2940
48591 2941
48847 2942
49103 2943
49359 2944
49615 2945
49871 2946
50127 2947
50383 2948
50639 2949
50895 2950
51151 2951
51407 2952
51663 2953
51919 2954
52175 2955
52431 2956
52687 2957
52943 2958
53199 2959
53455 2960
53711 2961
53967 2962
54223 2963
54479 2964
54735 2965
54991 2966
55247 2967
55503 2968
55759 2969
56015 2970
56271 2971
56527 2972
56783 2973
57039 2974
57295 2975
57551 2976
57807 2977
58063 2978
58319 2979
58575 2980
58831 2981
59087 2982
59343 2983
59599 2984
59855 2985
60111 2986
60367 2987
60623 2988
60879 2989
61135 2990
61391 2991
61647 2992
61903 2993
62159 2994
62415 2995
62671 2996
62927 2997
63183 2998
63439 2999
63695 3000
63951 3001
64207 3002
64463 3003
64719 3004
64975 3005
65231 3006
41424 3007
41680 3008
41936 3009
42192 3010
42448 3011
42704 3012
42960 3013
43216 3014
43472 3015
43728 3016
43984 3017
44240 3018
44496 3019
44752 3020
45008 3021
45264 3022
45520 3023
45776 3024
46032 3025
46288 3026
46544 3027
46800 3028
47056 3029
47312 3030
47568 3031
47824 3032
48080 3033
48336 3034
48592 3035
48848 3036
49104 3037
49360 3038
49616 3039
49872 3040
50128 3041
50384 3042
50640 3043
50896 3044
51152 3045
51408 3046
51664 3047
51920 3048
52176 3049
52432 3050
52688 3051
52944 3052
53200 3053
53456 3054
53712 3055
53968 3056
54224 3057
54480 3058
54736 3059
54992 3060
55248 3061
55504 3062
55760 3063
56016 3064
56272 3065
56528 3066
56784 3067
57040 3068
57296 3069
57552 3070
57808 3071
58064 3072
58320 3073
58576 3074
58832 3075
59088 3076
59344 3077
59600 3078
59856 3079
60112 3080
60368 3081
60624 3082
60880 3083
61136 3084
61392 3085
61648 3086
61904 3087
62160 3088
62416 3089
62672 3090
62928 3091
63184 3092
63440 3093
63696 3094
63952 3095
64208 3096
64464 3097
64720 3098
64976 3099
65232 3100
41425 3101
41681 3102
41937 3103
42193 3104
42449 3105
42705 3106
42961 3107
43217 3108
43473 3109
43729 3110
43985 3111
44241 3112
44497 3113
44753 3114
45009 3115
45265 3116
45521 3117
45777 3118
46033 3119
46289 3120
46545 3121
46801 3122
47057 3123
47313 3124
47569 3125
47825 3126
48081 3127
48337 3128
48593 3129
48849 3130
49105 3131
49361 3132
49617 3133
49873 3134
50129 3135
50385 3136
50641 3137
50897 3138
51153 3139
51409 3140
51665 3141
51921 3142
52177 3143
52433 3144
52689 3145
52945 3146
53201 3147
53457 3148
53713 3149
53969 3150
54225 3151
54481 3152
54737 3153
54993 3154
55249 3155
55505 3156
55761 3157
56017 3158
56273 3159
56529 3160
56785 3161
57041 3162
57297 3163
57553 3164
57809 3165
58065 3166
58321 3167
58577 3168
58833 3169
59089 3170
59345 3171
59601 3172
59857 3173
60113 3174
60369 3175
60625 3176
60881 3177
61137 3178
61393 3179
61649 3180
61905 3181
62161 3182
62417 3183
62673 3184
62929 3185
63185 3186
63441 3187
63697 3188
63953 3189
64209 3190
64465 3191
64721 3192
64977 3193
65233 3194
41426 3195
41682 3196
41938 3197
42194 3198
42450 3199
42706 3200
42962 3201
43218 3202
43474 3203
43730 3204
43986 3205
44242 3206
44498 3207
44754 3208
45010 3209
45266 3210
45522 3211
45778 3212
46034 3213
46290 3214
46546 3215
46802 3216
47058 3217
47314 3218
47570 3219
47826 3220
48082 3221
48338 3222
48594 3223
48850 3224
49106 3225
49362 3226
49618 3227
49874 3228
50130 3229
50386 3230
50642 3231
50898 3232
51154 3233
51410 3234
51666 3235
51922 3236
52178 3237
52434 3238
52690 3239
52946 3240
53202 3241
53458 3242
53714 3243
53970 3244
54226 3245
54482 3246
54738 3247
54994 3248
55250 3249
55506 3250
55762 3251
56018 3252
56274 3253
56530 3254
56786 3255
57042 3256
57298 3257
57554 3258
57810 3259
58066 3260
58322 3261
58578 3262
58834 3263
59090 3264
59346 3265
59602 3266
59858 3267
60114 3268
60370 3269
60626 3270
60882 3271
61138 3272
61394 3273
61650 3274
61906 3275
62162 3276
62418 3277
62674 3278
62930 3279
63186 3280
63442 3281
63698 3282
63954 3283
64210 3284
64466 3285
64722 3286
64978 3287
65234 3288
41427 3289
41683 3290
41939 3291
42195 3292
42451 3293
42707 3294
42963 3295
43219 3296
43475 3297
43731 3298
43987 3299
44243 3300
44499 3301
44755 3302
45011 3303
45267 3304
45523 3305
45779 3306
46035 3307
46291 3308
46547 3309
46803 3310
47059 3311
47315 3312
47571 3313
47827 3314
48083 3315
48339 3316
48595 3317
48851 3318
49107 3319
49363 3320
49619 3321
49875 3322
50131 3323
50387 3324
50643 3325
50899 3326
51155 3327
51411 3328
51667 3329
51923 3330
52179 3331
52435 3332
52691 3333
52947 3334
53203 3335
53459 3336
53715 3337
53971 3338
54227 3339
54483 3340
54739 3341
54995 3342
55251 3343
55507 3344
55763 3345
56019 3346
56275 3347
56531 3348
56787 3349
57043 3350
57299 3351
57555 3352
57811 3353
58067 3354
58323 3355
58579 3356
58835 3357
59091 3358
59347 3359
59603 3360
59859 3361
60115 3362
60371 3363
60627 3364
60883 3365
61139 3366
61395 3367
61651 3368
61907 3369
62163 3370
62419 3371
62675 3372
62931 3373
63187 3374
63443 3375
63699 3376
63955 3377
64211 3378
64467 3379
64723 3380
64979 3381
65235 3382
41428 3383
41684 3384
41940 3385
42196 3386
42452 3387
42708 3388
42964 3389
43220 3390
43476 3391
43732 3392
43988 3393
44244 3394
44500 3395
44756 3396
45012 3397
45268 3398
45524 3399
45780 3400
46036 3401
46292 3402
46548 3403
46804 3404
47060 3405
47316 3406
47572 3407
47828 3408
48084 3409
48340 3410
48596 3411
48852 3412
49108 3413
49364 3414
49620 3415
49876 3416
50132 3417
50388 3418
50644 3419
50900 3420
51156 3421
51412 3422
51668 3423
51924 3424
52180 3425
52436 3426
52692 3427
52948 3428
53204 3429
53460 3430
53716 3431
53972 3432
54228 3433
54484 3434
54740 3435
54996 3436
55252 3437
55508 3438
55764 3439
56020 3440
56276 3441
56532 3442
56788 3443
57044 3444
57300 3445
57556 3446
57812 3447
58324 3448
58580 3449
58836 3450
59092 3451
59348 3452
59604 3453
59860 3454
60116 3455
60372 3456
60628 3457
60884 3458
61140 3459
61396 3460
61652 3461
61908 3462
62164 3463
62420 3464
62676 3465
62932 3466
63188 3467
63444 3468
63700 3469
63956 3470
64212 3471
64468 3472
64724 3473
64980 3474
65236 3475
41429 3476
41685 3477
41941 3478
42197 3479
42453 3480
42709 3481
42965 3482
43221 3483
43477 3484
43733 3485
43989 3486
44245 3487
44501 3488
44757 3489
45013 3490
45269 3491
45525 3492
45781 3493
46037 3494
46293 3495
46549 3496
46805 3497
47061 3498
47317 3499
47573 3500
47829 3501
48085 3502
48341 3503
48597 3504
48853 3505
49109 3506
49365 3507
49621 3508
49877 3509
50133 3510
50389 3511
50645 3512
50901 3513
51157 3514
51413 3515
51669 3516
51925 3517
52181 3518
52437 3519
52693 3520
52949 3521
53205 3522
53461 3523
53717 3524
53973 3525
54229 3526
54485 3527
54741 3528
54997 3529
55253 3530
55509 3531
55765 3532
56021 3533
56277 3534
56533 3535
56789 3536
57045 3537
57301 3538
57557 3539
57813 3540
58069 3541
58325 3542
58581 3543
58837 3544
59093 3545
59349 3546
59605 3547
59861 3548
60117 3549
60373 3550
60629 3551
60885 3552
61141 3553
61397 3554
61653 3555
61909 3556
62165 3557
62421 3558
62677 3559
62933 3560
63189 3561
63445 3562
63701 3563
63957 3564
64213 3565
64469 3566
64725 3567
64981 3568
65237 3569
41430 3570
41686 3571
41942 3572
42198 3573
42454 3574
42710 3575
42966 3576
43222 3577
43478 3578
43734 3579
43990 3580
44246 3581
44502 3582
44758 3583
45014 3584
45270 3585
45526 3586
45782 3587
46038 3588
46294 3589
46550 3590
46806 3591
47062 3592
47318 3593
47574 3594
47830 3595
48086 3596
48342 3597
48598 3598
48854 3599
49110 3600
49366 3601
49622 3602
49878 3603
50134 3604
50390 3605
50646 3606
50902 3607
51158 3608
51414 3609
51670 3610
51926 3611
52182 3612
52438 3613
52694 3614
52950 3615
53206 3616
53462 3617
53718 3618
53974 3619
54230 3620
54486 3621
54742 3622
54998 3623
55254 3624
55510 3625
55766 3626
56022 3627
56278 3628
56534 3629
56790 3630
57046 3631
57558 3632
57814 3633
58070 3634
58326 3635
58582 3636
58838 3637
59094 3638
59350 3639
59606 3640
59862 3641
60118 3642
60374 3643
60630 3644
60886 3645
61142 3646
61398 3647
61654 3648
61910 3649
62166 3650
62422 3651
62678 3652
62934 3653
63190 3654
63446 3655
63702 3656
63958 3657
64214 3658
64470 3659
64726 3660
64982 3661
65238 3662
41431 3663
41687 3664
41943 3665
42199 3666
42455 3667
42711 3668
42967 3669
43223 3670
43479 3671
43735 3672
43991 3673
44247 3674
44503 3675
44759 3676
45015 3677
45271 3678
45527 3679
45783 3680
46039 3681
46295 3682
46551 3683
46807 3684
47063 3685
47319 3686
47575 3687
47831 3688
48087 3689
48343 3690
48599 3691
48855 3692
49111 3693
49367 3694
49623 3695
49879 3696
50135 3697
50391 3698
50647 3699
50903 3700
51159 3701
51415 3702
51671 3703
51927 3704
52183 3705
52439 3706
52695 3707
52951 3708
53207 3709
53463 3710
53719 3711
53975 3712
54231 3713
54487 3714
54743 3715
54999 3716
55255 3717
55511 3718
55767 3719
56023 3720
56279 3721
56535 3722
56791 3723
57047 3724
57303 3725
57559 3726
57815 3727
58071 3728
58327 3729
58583 3730
58839 3731
59095 3732
59351 3733
59607 3734
59863 3735
60119 3736
60375 3737
60631 3738
60887 3739
61143 3740
61399 3741
61655 3742
61911 3743
62167 3744
62423 3745
62679 3746
62935 3747
63191 3748
63447 3749
63703 3750
63959 3751
58068 3752
57302 3753
57549 3754
